---
http_interactions:
- request:
    method: get
    uri: https://www.flickr.com/services/rest?api_key=fr-key&format=json&method=flickr.photos.search&nojsoncallback=1&text=libby,mt
    body:
      encoding: US-ASCII
      string: ''
    headers:
      User-Agent:
      - Faraday v1.4.1
      Accept-Encoding:
      - gzip;q=1.0,deflate;q=0.6,identity;q=0.3
      Accept:
      - "*/*"
  response:
    status:
      code: 200
      message: OK
    headers:
      Content-Type:
      - application/json
      Transfer-Encoding:
      - chunked
      Connection:
      - keep-alive
      Date:
      - Sun, 25 Apr 2021 21:12:15 GMT
      Server:
      - Apache/2.4.46 (Ubuntu)
      Set-Cookie:
      - ccc=%7B%22needsConsent%22%3Afalse%2C%22managed%22%3A0%2C%22changed%22%3A0%2C%22info%22%3A%7B%22cookieBlock%22%3A%7B%22level%22%3A0%2C%22blockRan%22%3A0%7D%7D%7D;
        expires=Tue, 25-May-2021 21:12:15 GMT; Max-Age=2592000; path=/; domain=.flickr.com
      X-Content-Type-Options:
      - nosniff
      X-Frame-Options:
      - SAMEORIGIN
      X-Cache:
      - Miss from cloudfront
      Via:
      - 1.1 dfc972676b24a6d23251d4f298dfa08c.cloudfront.net (CloudFront)
      X-Amz-Cf-Pop:
      - YVR50-C1
      X-Amz-Cf-Id:
      - sgJzPcQpmzU3hJJ_ihK6Eo484W98lKLw5LybkfIYueVtOB5393TRBQ==
    body:
      encoding: UTF-8
      string: '{"photos":{"page":1,"pages":2,"perpage":100,"total":"162","photo":[{"id":"45975335341","owner":"129652149@N03","secret":"a0651a3f92","server":"4894","farm":5,"title":"Bear
        Wood","ispublic":1,"isfriend":0,"isfamily":0},{"id":"43403217984","owner":"67812736@N00","secret":"b7ae921810","server":"1843","farm":2,"title":"Immature
        Bald Eagle","ispublic":1,"isfriend":0,"isfamily":0},{"id":"28859609887","owner":"67812736@N00","secret":"730f9fff60","server":"850","farm":1,"title":"Micki
        on Kootenai","ispublic":1,"isfriend":0,"isfamily":0},{"id":"43071243474","owner":"67812736@N00","secret":"dc1c05a574","server":"1795","farm":2,"title":"Sheep
        II","ispublic":1,"isfriend":0,"isfamily":0},{"id":"28851365427","owner":"67812736@N00","secret":"b621189e2d","server":"854","farm":1,"title":"Sheep","ispublic":1,"isfriend":0,"isfamily":0},{"id":"28748009847","owner":"67812736@N00","secret":"e4ec5a5e0e","server":"847","farm":1,"title":"Columbia
        Helo II","ispublic":1,"isfriend":0,"isfamily":0},{"id":"42731871165","owner":"67812736@N00","secret":"b8ffb447f4","server":"923","farm":1,"title":"Columbia
        Helo III","ispublic":1,"isfriend":0,"isfamily":0},{"id":"42731831955","owner":"67812736@N00","secret":"e1cd8a9cf9","server":"920","farm":1,"title":"Columbia
        Helo IV","ispublic":1,"isfriend":0,"isfamily":0},{"id":"28747943477","owner":"67812736@N00","secret":"39e30bf0ef","server":"933","farm":1,"title":"Columbia
        Helo V","ispublic":1,"isfriend":0,"isfamily":0},{"id":"42731797245","owner":"67812736@N00","secret":"6931bb57a3","server":"860","farm":1,"title":"Columbia
        Helo VI","ispublic":1,"isfriend":0,"isfamily":0},{"id":"29765729518","owner":"67812736@N00","secret":"6a1503e5f3","server":"916","farm":1,"title":"Hwy
        37 Fire","ispublic":1,"isfriend":0,"isfamily":0},{"id":"40209932191","owner":"67812736@N00","secret":"ca84e635fe","server":"4651","farm":5,"title":"Sunset
        - Cabinet Mountains","ispublic":1,"isfriend":0,"isfamily":0},{"id":"37226065281","owner":"67812736@N00","secret":"4f53c53c53","server":"4383","farm":5,"title":"Dome
        and Storm","ispublic":1,"isfriend":0,"isfamily":0},{"id":"36934395650","owner":"67812736@N00","secret":"2a3987f381","server":"4437","farm":5,"title":"Chainsaw
        Carving XVII","ispublic":1,"isfriend":0,"isfamily":0},{"id":"36934352350","owner":"67812736@N00","secret":"ae8afca0d0","server":"4376","farm":5,"title":"Chainsaw
        carving XIX","ispublic":1,"isfriend":0,"isfamily":0},{"id":"36494164884","owner":"67812736@N00","secret":"53d6b6b4cb","server":"4356","farm":5,"title":"chainsaw
        carving i","ispublic":1,"isfriend":0,"isfamily":0},{"id":"37332076505","owner":"67812736@N00","secret":"9c066a6c77","server":"4429","farm":5,"title":"Chainsaw
        Carving II","ispublic":1,"isfriend":0,"isfamily":0},{"id":"37332049055","owner":"67812736@N00","secret":"8dc6a3d135","server":"4439","farm":5,"title":"Chainsaw
        Carving III","ispublic":1,"isfriend":0,"isfamily":0},{"id":"36519001543","owner":"67812736@N00","secret":"d0a9da2b38","server":"4359","farm":5,"title":"Chainsaw
        carving IX","ispublic":1,"isfriend":0,"isfamily":0},{"id":"37188936311","owner":"67812736@N00","secret":"025c664c57","server":"4424","farm":5,"title":"Chainsaw
        carving V","ispublic":1,"isfriend":0,"isfamily":0},{"id":"37159173462","owner":"67812736@N00","secret":"ba78aef351","server":"4343","farm":5,"title":"Chainsaw
        Carving XIII","ispublic":1,"isfriend":0,"isfamily":0},{"id":"37141128856","owner":"67812736@N00","secret":"4c9370ea9b","server":"4411","farm":5,"title":"Chainsaw
        Carving VI","ispublic":1,"isfriend":0,"isfamily":0},{"id":"37331953875","owner":"67812736@N00","secret":"bea14b5f49","server":"4409","farm":5,"title":"Chainsaw
        Carving XX","ispublic":1,"isfriend":0,"isfamily":0},{"id":"36506210843","owner":"67812736@N00","secret":"e6c8f38d54","server":"4346","farm":5,"title":"Chainsaw
        Carving XVI","ispublic":1,"isfriend":0,"isfamily":0},{"id":"36922133040","owner":"67812736@N00","secret":"196f9293eb","server":"4422","farm":5,"title":"Chainsaw
        Carving VIII","ispublic":1,"isfriend":0,"isfamily":0},{"id":"36506042143","owner":"67812736@N00","secret":"09e438ac6d","server":"4411","farm":5,"title":"Chainsaw
        Carving XVIII","ispublic":1,"isfriend":0,"isfamily":0},{"id":"36506020063","owner":"67812736@N00","secret":"905f522107","server":"4416","farm":5,"title":"Chainsaw
        Carving XXI","ispublic":1,"isfriend":0,"isfamily":0},{"id":"37319687045","owner":"67812736@N00","secret":"9e4a297d90","server":"4349","farm":5,"title":"Chainsaw
        Carving XV","ispublic":1,"isfriend":0,"isfamily":0},{"id":"36481939704","owner":"67812736@N00","secret":"ea3ec0434a","server":"4438","farm":5,"title":"Chainsaw
        Carving X","ispublic":1,"isfriend":0,"isfamily":0},{"id":"36921969190","owner":"67812736@N00","secret":"106496c680","server":"4426","farm":5,"title":"Chainsaw
        carving VII","ispublic":1,"isfriend":0,"isfamily":0},{"id":"36505879563","owner":"67812736@N00","secret":"bb0f0a8209","server":"4345","farm":5,"title":"Wolf
        Carving II","ispublic":1,"isfriend":0,"isfamily":0},{"id":"37176780881","owner":"67812736@N00","secret":"5f002aee7c","server":"4380","farm":5,"title":"Wolf
        Carving","ispublic":1,"isfriend":0,"isfamily":0},{"id":"37209238275","owner":"67812736@N00","secret":"d31d3dccb0","server":"4331","farm":5,"title":"Air
        Tractor 802","ispublic":1,"isfriend":0,"isfamily":0},{"id":"37209229165","owner":"67812736@N00","secret":"8b0d0839cf","server":"4370","farm":5,"title":"Air
        Tractor 802","ispublic":1,"isfriend":0,"isfamily":0},{"id":"36847927871","owner":"67812736@N00","secret":"a76cc23ea1","server":"4339","farm":5,"title":"Fire
        V","ispublic":1,"isfriend":0,"isfamily":0},{"id":"36166655393","owner":"67812736@N00","secret":"e600614383","server":"4391","farm":5,"title":"Fire
        IV","ispublic":1,"isfriend":0,"isfamily":0},{"id":"36072899384","owner":"67812736@N00","secret":"182d8b7640","server":"4332","farm":5,"title":"Pike
        Minnow II","ispublic":1,"isfriend":0,"isfamily":0},{"id":"36907168625","owner":"67812736@N00","secret":"b2552d7e90","server":"4399","farm":5,"title":"Pike
        Minnow III","ispublic":1,"isfriend":0,"isfamily":0},{"id":"36907155905","owner":"67812736@N00","secret":"3525e658c5","server":"4348","farm":5,"title":"Pike
        Minnow","ispublic":1,"isfriend":0,"isfamily":0},{"id":"35278098394","owner":"67812736@N00","secret":"d61b72b42c","server":"4314","farm":5,"title":"Fly
        II","ispublic":1,"isfriend":0,"isfamily":0},{"id":"35727838600","owner":"67812736@N00","secret":"49790900ea","server":"4292","farm":5,"title":"Fly
        III","ispublic":1,"isfriend":0,"isfamily":0},{"id":"35949626272","owner":"67812736@N00","secret":"28204b264b","server":"4318","farm":5,"title":"Fly
        IV","ispublic":1,"isfriend":0,"isfamily":0},{"id":"35985328331","owner":"67812736@N00","secret":"6f99291101","server":"4312","farm":5,"title":"Fly
        I","ispublic":1,"isfriend":0,"isfamily":0},{"id":"36028330225","owner":"67812736@N00","secret":"69ff113be3","server":"4326","farm":5,"title":"untitled
        (1 of 3)","ispublic":1,"isfriend":0,"isfamily":0},{"id":"35986705126","owner":"67812736@N00","secret":"7b0f309d28","server":"4317","farm":5,"title":"untitled
        (2 of 3)","ispublic":1,"isfriend":0,"isfamily":0},{"id":"35857177412","owner":"67812736@N00","secret":"d5776bf17c","server":"4323","farm":5,"title":"untitled
        (3 of 3)","ispublic":1,"isfriend":0,"isfamily":0},{"id":"35677845716","owner":"67812736@N00","secret":"cfa41b922e","server":"4048","farm":5,"title":"361A0254","ispublic":1,"isfriend":0,"isfamily":0},{"id":"34876154894","owner":"67812736@N00","secret":"3427019bf5","server":"4043","farm":5,"title":"Crab
        Spider III","ispublic":1,"isfriend":0,"isfamily":0},{"id":"35717384345","owner":"67812736@N00","secret":"3859be2211","server":"4231","farm":5,"title":"Crab
        Spider V","ispublic":1,"isfriend":0,"isfamily":0},{"id":"35568144901","owner":"67812736@N00","secret":"2bf720e0ec","server":"4114","farm":5,"title":"Jumper","ispublic":1,"isfriend":0,"isfamily":0},{"id":"35585395625","owner":"67812736@N00","secret":"979100a8b1","server":"4237","farm":5,"title":"Wasp
        II","ispublic":1,"isfriend":0,"isfamily":0},{"id":"34776392833","owner":"67812736@N00","secret":"bb25a51396","server":"4206","farm":5,"title":"Wasp
        III","ispublic":1,"isfriend":0,"isfamily":0},{"id":"34665016472","owner":"67812736@N00","secret":"fb14952a6e","server":"4195","farm":5,"title":"Purple
        Iris (1 of 1)","ispublic":1,"isfriend":0,"isfamily":0},{"id":"34442027420","owner":"67812736@N00","secret":"72a9801484","server":"4223","farm":5,"title":"Purple
        Iris I (1 of 1)","ispublic":1,"isfriend":0,"isfamily":0},{"id":"34668536196","owner":"67812736@N00","secret":"ac8e94400f","server":"4160","farm":5,"title":"Rain
        Over Libby (1 of 1)","ispublic":1,"isfriend":0,"isfamily":0},{"id":"34668523686","owner":"67812736@N00","secret":"9b90d03141","server":"4177","farm":5,"title":"Rain
        Over Libby II (1 of 1)","ispublic":1,"isfriend":0,"isfamily":0},{"id":"34139233000","owner":"67812736@N00","secret":"bc48b955d9","server":"4193","farm":5,"title":"Shooting
        Star (1 of 1)","ispublic":1,"isfriend":0,"isfamily":0},{"id":"34525074335","owner":"67812736@N00","secret":"5859d88e1f","server":"4157","farm":5,"title":"Shooting
        Star III (1 of 1)","ispublic":1,"isfriend":0,"isfamily":0},{"id":"34483742256","owner":"67812736@N00","secret":"c204dc4289","server":"4186","farm":5,"title":"Shooting
        Star IV (1 of 1)","ispublic":1,"isfriend":0,"isfamily":0},{"id":"33705034403","owner":"67812736@N00","secret":"b1294c297b","server":"4178","farm":5,"title":"Hummingbird
        (1 of 1)","ispublic":1,"isfriend":0,"isfamily":0},{"id":"34129975890","owner":"67812736@N00","secret":"d800f293e9","server":"4181","farm":5,"title":"Hummingbird
        I (1 of 1)","ispublic":1,"isfriend":0,"isfamily":0},{"id":"34354677762","owner":"67812736@N00","secret":"431aba9a1d","server":"4182","farm":5,"title":"Hummingbird
        II (1 of 1)","ispublic":1,"isfriend":0,"isfamily":0},{"id":"33610515426","owner":"67812736@N00","secret":"bb2e64c2ba","server":"2838","farm":3,"title":"Dome
        Mountain (1 of 1)","ispublic":1,"isfriend":0,"isfamily":0},{"id":"33081331420","owner":"67812736@N00","secret":"7ee16e97a3","server":"3744","farm":4,"title":"Koocanusa  (1
        of 1)","ispublic":1,"isfriend":0,"isfamily":0},{"id":"29085960214","owner":"67812736@N00","secret":"d41fa2a8e3","server":"8326","farm":9,"title":"Moon
        II (1 of 1)","ispublic":1,"isfriend":0,"isfamily":0},{"id":"29048245054","owner":"67812736@N00","secret":"e920c56495","server":"8531","farm":9,"title":"Descent
        From Engle (1 of 1)","ispublic":1,"isfriend":0,"isfamily":0},{"id":"29674641665","owner":"67812736@N00","secret":"1c402eb62a","server":"8254","farm":9,"title":"Micki
        @ Engle (1 of 1)","ispublic":1,"isfriend":0,"isfamily":0},{"id":"29639080996","owner":"67812736@N00","secret":"beeeda4ae3","server":"8053","farm":9,"title":"Stripe''s
        Descent From Engle (1 of 1)","ispublic":1,"isfriend":0,"isfamily":0},{"id":"29674614905","owner":"67812736@N00","secret":"5c85595996","server":"8209","farm":9,"title":"Micki
        @ Engle II (1 of 1)","ispublic":1,"isfriend":0,"isfamily":0},{"id":"29048214854","owner":"67812736@N00","secret":"79956861b0","server":"8511","farm":9,"title":"Sunset
        Descent From Engle (1 of 1)","ispublic":1,"isfriend":0,"isfamily":0},{"id":"29048198084","owner":"67812736@N00","secret":"d3f3a3e186","server":"8373","farm":9,"title":"View
        From Engle Peak (1 of 1)","ispublic":1,"isfriend":0,"isfamily":0},{"id":"29674583995","owner":"67812736@N00","secret":"13dbb8cf4a","server":"8484","farm":9,"title":"View
        From Engle Peak c Micki (1 of 1)","ispublic":1,"isfriend":0,"isfamily":0},{"id":"29593253691","owner":"67812736@N00","secret":"ba364ed44b","server":"8518","farm":9,"title":"View
        From Engle Peak II (1 of 1)","ispublic":1,"isfriend":0,"isfamily":0},{"id":"28359799331","owner":"67812736@N00","secret":"c113c39a10","server":"8626","farm":9,"title":"Goat
        @ Hanging Valley  (1 of 1)","ispublic":1,"isfriend":0,"isfamily":0},{"id":"27821858164","owner":"67812736@N00","secret":"332101c5db","server":"8362","farm":9,"title":"Micki
        @ Hanging  (1 of 1)","ispublic":1,"isfriend":0,"isfamily":0},{"id":"28333636892","owner":"67812736@N00","secret":"807cde3389","server":"8309","farm":9,"title":"Micki
        @ Hanging Valley  (1 of 1)","ispublic":1,"isfriend":0,"isfamily":0},{"id":"27821770534","owner":"67812736@N00","secret":"25e2e38f3c","server":"8875","farm":9,"title":"Micki
        @ Hanging Valley II (1 of 1)","ispublic":1,"isfriend":0,"isfamily":0},{"id":"28140322340","owner":"67812736@N00","secret":"cb3a0c2304","server":"7636","farm":8,"title":"Goat
        @ Hanging Valley (1 of 1)","ispublic":1,"isfriend":0,"isfamily":0},{"id":"28390492786","owner":"67812736@N00","secret":"a7be86ec7d","server":"8726","farm":9,"title":"Goats
        @ Hanging Valley  (1 of 1)","ispublic":1,"isfriend":0,"isfamily":0},{"id":"27807062863","owner":"67812736@N00","secret":"17ffd794e1","server":"8619","farm":9,"title":"Jumper
        & Fly 1 (1 of 1)","ispublic":1,"isfriend":0,"isfamily":0},{"id":"27806482694","owner":"67812736@N00","secret":"34243437aa","server":"8739","farm":9,"title":"Jumper
        & Fly II (1 of 1)","ispublic":1,"isfriend":0,"isfamily":0},{"id":"28140303760","owner":"67812736@N00","secret":"1ff71b4292","server":"8497","farm":9,"title":"Micki
        @ Hanging Valley  (1 of 1)","ispublic":1,"isfriend":0,"isfamily":0},{"id":"27853728211","owner":"8262630@N08","secret":"db1b3912ae","server":"7234","farm":8,"title":"LibbyMT","ispublic":1,"isfriend":0,"isfamily":0},{"id":"27133975062","owner":"37155226@N06","secret":"5e69f4df6f","server":"7053","farm":8,"title":"Kootenai
        Falls","ispublic":1,"isfriend":0,"isfamily":0},{"id":"15055407130","owner":"80069955@N05","secret":"11e12486df","server":"3889","farm":4,"title":"Though
        he be but little, he is fierce! #creekfishing #shrinkray #libbymt #onefriend
        #andcounting","ispublic":1,"isfriend":0,"isfamily":0},{"id":"10768865444","owner":"32710591@N03","secret":"6acb7bb017","server":"7405","farm":8,"title":"087_LIBBYMT_GN-BNSF","ispublic":1,"isfriend":0,"isfamily":0},{"id":"7966683026","owner":"38363061@N04","secret":"0ffa17323b","server":"8032","farm":9,"title":"City
        of Eagles","ispublic":1,"isfriend":0,"isfamily":0},{"id":"7663706072","owner":"25240586@N08","secret":"110b499488","server":"7129","farm":8,"title":"Ten
        Lakes Scenic Area panorama from the Pacific Northwest Trail above Rainbow
        Lake, Kootenai National Forest, Montana","ispublic":1,"isfriend":0,"isfamily":0},{"id":"7325286378","owner":"79112728@N06","secret":"a5961e7a7e","server":"7078","farm":8,"title":"Libby
        MT","ispublic":1,"isfriend":0,"isfamily":0},{"id":"6609542665","owner":"35498158@N08","secret":"8a02c82dae","server":"7151","farm":8,"title":"IMG_5596.jpg","ispublic":1,"isfriend":0,"isfamily":0},{"id":"6609541703","owner":"35498158@N08","secret":"cc28951232","server":"7032","farm":8,"title":"LIbby
        Depot","ispublic":1,"isfriend":0,"isfamily":0},{"id":"6571625227","owner":"35498158@N08","secret":"123d1e293e","server":"7142","farm":8,"title":"J
        Neils Lumber Co. Fire Engine 1","ispublic":1,"isfriend":0,"isfamily":0},{"id":"6571362299","owner":"35498158@N08","secret":"05ed07aee0","server":"7033","farm":8,"title":"Off
        The Grid","ispublic":1,"isfriend":0,"isfamily":0},{"id":"6571360625","owner":"35498158@N08","secret":"b427d80c5e","server":"7035","farm":8,"title":"Mine
        Processing Plant","ispublic":1,"isfriend":0,"isfamily":0},{"id":"6571359277","owner":"35498158@N08","secret":"7ba444a2eb","server":"7174","farm":8,"title":"Mine
        Opening","ispublic":1,"isfriend":0,"isfamily":0},{"id":"6571357761","owner":"35498158@N08","secret":"e5a1095b01","server":"7158","farm":8,"title":"Antique
        Air Compressor - 2","ispublic":1,"isfriend":0,"isfamily":0},{"id":"6571356477","owner":"35498158@N08","secret":"4f35101187","server":"7152","farm":8,"title":"Air
        Compressor - 1","ispublic":1,"isfriend":0,"isfamily":0},{"id":"6571355147","owner":"35498158@N08","secret":"95db1142f7","server":"7161","farm":8,"title":"Antique
        Outboard Motor","ispublic":1,"isfriend":0,"isfamily":0},{"id":"6571340289","owner":"35498158@N08","secret":"f9afb961ed","server":"7012","farm":8,"title":"Little
        House in the Woods","ispublic":1,"isfriend":0,"isfamily":0},{"id":"6129072142","owner":"7800642@N06","secret":"5dbdccb87b","server":"6199","farm":7,"title":"9-05-2011
        Kootenai Falls","ispublic":1,"isfriend":0,"isfamily":0}]},"stat":"ok"}'
  recorded_at: Sun, 25 Apr 2021 21:12:15 GMT
recorded_with: VCR 6.0.0
